…
Tibbles _are_ data frames but they tweak some older behaviors to make it easier to work with.  

## 10.2 Creating tibbles  

Might want to coerce a data fram to a tibble:  

```r
as_tibble(iris)
```

```
## # A tibble: 150 × 5
##    Sepal.Length Sepal.Width Petal.Length Petal.Width Species
##           <dbl>       <dbl>        <dbl>       <dbl>  <fctr>
## 1           5.1         3.5          1.4         0.2  setosa
## 2           4.9         3.0          1.4         0.2  setosa
## 3           4.7         3.2          1.3         0.2  setosa
## 4           4.6         3.1          1.5         0.2  setosa
## 5           5.0         3.6          1.4         0.2  setosa
## 6           5.4         3.9          1.7         0.4  setosa
## 7           4.6         3.4          1.4         0.3  setosa
## 8           5.0         3.4          1.5         0.2  setosa
## 9           4.4         2.9          1.4         0.2  setosa
## 10          4.9         3.1          1.5         0.1  setosa
## # ... with 140 more rows
```
…
Tibbles have a refined print method that shows only the first 10 rows and all columns that fit on the screen. Each column also reports its type.  

```r
tibble(
  a = lubridate::now() + runif(1e3) * 86400,
  b = lubridate::today() + runif(1e3) * 30,
  c = 1:1e3,
  d = runif(1e3),
  e = sample(letters, 1e3, replace = TRUE)
)
```

```
## # A tibble: 1,000 × 5
##                      a          b     c         d     e
##                 <dttm>     <date> <int>     <dbl> <chr>
## 1  2017-05-31 07:01:12 2017-06-08     1 0.1533283     e
## 2  2017-05-31 01:35:15 2017-06-01     2 0.7288776     r
## 3  2017-05-30 15:46:33 2017-06-14     3 0.1109609     b
## 4  2017-05-31 01:58:37 2017-06-22     4 0.8660077     k
## 5  2017-05-30 13:43:43 2017-06-12     5 0.2295415     z
## 6  2017-05-31 04:35:15 2017-06-15     6 0.6718576     c
## 7  2017-05-31 07:11:14 2017-06-10     7 0.8948506     h
## 8  2017-05-31 10:41:50 2017-06-11     8 0.2458218     u
## 9  2017-05-30 15:07:44 2017-06-13     9 0.9230723     g
## 10 2017-05-30 20:41:01 2017-06-10    10 0.9399503     u
## # ... with 990 more rows
```
…
