…
`summarise()` is more useful when used with `group_by()` because it analyzes individual groups instead of the whole dataset. Example:

```r
#Get average delay per date
by_day <- group_by(flights, year, month, day)
summarise(by_day, delay = mean(dep_delay, na.rm = TRUE))
```

```
## Source: local data frame [365 x 4]
## Groups: year, month [?]
## 
##     year month   day     delay
##    <int> <int> <int>     <dbl>
## 1   2013     1     1 11.548926
## 2   2013     1     2 13.858824
## 3   2013     1     3 10.987832
## 4   2013     1     4  8.951595
## 5   2013     1     5  5.732218
## 6   2013     1     6  7.148014
## 7   2013     1     7  5.417204
## 8   2013     1     8  2.553073
## 9   2013     1     9  2.276477
## 10  2013     1    10  2.844995
## # ... with 355 more rows
```
…
```r
#> `geom_smooth()` using method = 'gam'
```


This has important implications for ranking. Sorting on `desc(ba)`, these players are lucky, not skilled:

```r
batters %>% 
  arrange(desc(ba))
```

```
## # A tibble: 18,659 × 3
##     playerID    ba    ab
##        <chr> <dbl> <int>
## 1  abramge01     1     1
## 2  banisje01     1     1
## 3  bartocl01     1     1
## 4   bassdo01     1     1
## 5  birasst01     1     2
## 6  bruneju01     1     1
## 7  burnscb01     1     1
## 8  cammaer01     1     1
## 9   campsh01     1     1
## 10 crockcl01     1     1
## # ... with 18,649 more rows
```
…
Measures of location: `mean(x)` which is the sum divided by the length or `median(x)` where 50% of `x` is above it and 50% is below it.  

Sometimes can be useful to combine aggregation with subsetting (which we haven't learned about yet):

```r
not_cancelled %>% 
  group_by(year, month, day) %>% 
  summarise(
    avg_delay1 = mean(arr_delay),
    avg_delay2 = mean(arr_delay[arr_delay > 0]) # the average positive delay
  )
```

```
## Source: local data frame [365 x 5]
## Groups: year, month [?]
## 
##     year month   day avg_delay1 avg_delay2
##    <int> <int> <int>      <dbl>      <dbl>
## 1   2013     1     1 12.6510229   32.48156
## 2   2013     1     2 12.6928879   32.02991
## 3   2013     1     3  5.7333333   27.66087
## 4   2013     1     4 -1.9328194   28.30976
## 5   2013     1     5 -1.5258020   22.55882
## 6   2013     1     6  4.2364294   24.37270
## 7   2013     1     7 -4.9473118   27.76132
## 8   2013     1     8 -3.2275785   20.78909
## 9   2013     1     9 -0.2642777   25.63415
## 10  2013     1    10 -5.8988159   27.34545
## # ... with 355 more rows
```

Measures of spread: `sd(x)` which is the standard deviation, `IQR(x)` which is the interquartile range, or `mad(x)` which is the median absolute deviation. `IQR(x)` and `mad(x)` are rough equivalents that are more useful if there are outliers in the data.


```r
# Why is distance to some destinations more variable than to others?
not_cancelled %>% 
  group_by(dest) %>% 
  summarise(distance_sd = sd(distance)) %>% 
  arrange(desc(distance_sd))
```

```
## # A tibble: 104 × 2
##     dest distance_sd
##    <chr>       <dbl>
## 1    EGE   10.542765
## 2    SAN   10.350094
## 3    SFO   10.216017
## 4    HNL   10.004197
## 5    SEA    9.977993
## 6    LAS    9.907786
## 7    PDX    9.873299
## 8    PHX    9.862546
## 9    LAX    9.657195
## 10   IND    9.458066
## # ... with 94 more rows
```

Measures of rank: `min(x)`, `quantile(x, 0.25)` which is a generalization of the median (specifically here it will find a value of `x` that is greater than 25% of the values and less than the remaining 75%), or `max(x)`.

```r
# When do the first and last flights leave each day?
not_cancelled %>% 
  group_by(year, month, day) %>% 
  summarise(
    first = min(dep_time),
    last = max(dep_time)
  )
```

```
## Source: local data frame [365 x 5]
## Groups: year, month [?]
## 
##     year month   day first  last
##    <int> <int> <int> <int> <int>
## 1   2013     1     1   517  2356
## 2   2013     1     2    42  2354
## 3   2013     1     3    32  2349
## 4   2013     1     4    25  2358
## 5   2013     1     5    14  2357
## 6   2013     1     6    16  2355
## 7   2013     1     7    49  2359
## 8   2013     1     8   454  2351
## 9   2013     1     9     2  2252
## 10  2013     1    10     3  2320
## # ... with 355 more rows
```

Measures of position: `first(x)`, `nth(x, 2)`, or `last(x)`. Work similarly to `x[1]`, `x[2]`, and `x[length(x)]` but lets you set a default value if that position does not exist ((i.e. you’re trying to get the 3rd element from a group that only has two elements).

```r
#Find first and last departure for each day
not_cancelled %>% 
  group_by(year, month, day) %>% 
  summarise(
    first_dep = first(dep_time), 
    last_dep = last(dep_time)
  )
```

```
## Source: local data frame [365 x 5]
## Groups: year, month [?]
## 
##     year month   day first_dep last_dep
##    <int> <int> <int>     <int>    <int>
## 1   2013     1     1       517     2356
## 2   2013     1     2        42     2354
## 3   2013     1     3        32     2349
## 4   2013     1     4        25     2358
## 5   2013     1     5        14     2357
## 6   2013     1     6        16     2355
## 7   2013     1     7        49     2359
## 8   2013     1     8       454     2351
## 9   2013     1     9         2     2252
## 10  2013     1    10         3     2320
## # ... with 355 more rows
```

These are complemenary to filtering on ranks:

```r
not_cancelled %>% 
  group_by(year, month, day) %>% 
  mutate(r = min_rank(desc(dep_time))) %>% 
  filter(r %in% range(r))
```

```
## Source: local data frame [770 x 20]
## Groups: year, month, day [365]
## 
##     year month   day dep_time sched_dep_time dep_delay arr_time
##    <int> <int> <int>    <int>          <int>     <dbl>    <int>
## 1   2013     1     1      517            515         2      830
## 2   2013     1     1     2356           2359        -3      425
## 3   2013     1     2       42           2359        43      518
## 4   2013     1     2     2354           2359        -5      413
## 5   2013     1     3       32           2359        33      504
## 6   2013     1     3     2349           2359       -10      434
## 7   2013     1     4       25           2359        26      505
## 8   2013     1     4     2358           2359        -1      429
## 9   2013     1     4     2358           2359        -1      436
## 10  2013     1     5       14           2359        15      503
## # ... with 760 more rows, and 13 more variables: sched_arr_time <int>,
## #   arr_delay <dbl>, carrier <chr>, flight <int>, tailnum <chr>,
## #   origin <chr>, dest <chr>, air_time <dbl>, distance <dbl>, hour <dbl>,
## #   minute <dbl>, time_hour <dttm>, r <int>
```

Counts: `n()` which takes no arguments and returns the size of the current group. For number of non-missing values use `sum(!is.na(x))`. For number of unique values use `n_distinct(x)`.

```r
# Which destinations have the most carriers?
not_cancelled %>% 
  group_by(dest) %>% 
  summarise(carriers = n_distinct(carrier)) %>% 
  arrange(desc(carriers))
```

```
## # A tibble: 104 × 2
##     dest carriers
##    <chr>    <int>
## 1    ATL        7
## 2    BOS        7
## 3    CLT        7
## 4    ORD        7
## 5    TPA        7
## 6    AUS        6
## 7    DCA        6
## 8    DTW        6
## 9    IAD        6
## 10   MSP        6
## # ... with 94 more rows
```

If all you want is count:

```r
not_cancelled %>% 
  count(dest)
```

```
## # A tibble: 104 × 2
##     dest     n
##    <chr> <int>
## 1    ABQ   254
## 2    ACK   264
## 3    ALB   418
## 4    ANC     8
## 5    ATL 16837
## 6    AUS  2411
## 7    AVL   261
## 8    BDL   412
## 9    BGR   358
## 10   BHM   269
## # ... with 94 more rows
```

If you want to weight a variable:

```r
#Total number of miles a plane flew
not_cancelled %>% 
  count(tailnum, wt = distance)
```

```
## # A tibble: 4,037 × 2
##    tailnum      n
##      <chr>  <dbl>
## 1   D942DN   3418
## 2   N0EGMQ 239143
## 3   N10156 109664
## 4   N102UW  25722
## 5   N103US  24619
## 6   N104UW  24616
## 7   N10575 139903
## 8   N105UW  23618
## 9   N107US  21677
## 10  N108UW  32070
## # ... with 4,027 more rows
```

Counts and proportions of logical values: `sum(x>10)` or `mean(y==0)`. When used with numeric functions `TRUE` is converted to 1 and `FALSE` to 0 making `sum(x)` give number of `TRUE` in `x` and `mean(x)` gives proportion.

```r
# How many flights left before 5am? (these usually indicate delayed
# flights from the previous day)
not_cancelled %>% 
  group_by(year, month, day) %>% 
  summarise(n_early = sum(dep_time < 500))
```

```
## Source: local data frame [365 x 4]
## Groups: year, month [?]
## 
##     year month   day n_early
##    <int> <int> <int>   <int>
## 1   2013     1     1       0
## 2   2013     1     2       3
## 3   2013     1     3       4
## 4   2013     1     4       3
## 5   2013     1     5       3
## 6   2013     1     6       2
## 7   2013     1     7       2
## 8   2013     1     8       1
## 9   2013     1     9       3
## 10  2013     1    10       3
## # ... with 355 more rows
```

```r
# What proportion of flights are delayed by more than an hour?
not_cancelled %>% 
  group_by(year, month, day) %>% 
  summarise(hour_perc = mean(arr_delay > 60))
```

```
## Source: local data frame [365 x 4]
## Groups: year, month [?]
## 
##     year month   day  hour_perc
##    <int> <int> <int>      <dbl>
## 1   2013     1     1 0.07220217
## 2   2013     1     2 0.08512931
## 3   2013     1     3 0.05666667
## 4   2013     1     4 0.03964758
## 5   2013     1     5 0.03486750
## 6   2013     1     6 0.04704463
## 7   2013     1     7 0.03333333
## 8   2013     1     8 0.02130045
## 9   2013     1     9 0.02015677
## 10  2013     1    10 0.01829925
## # ... with 355 more rows
```

### 5.6.5 Grouping by multiple variables

When grouping by multiple variables, each summary peels off one level of the grouping, making it easy to roll up a data set:

```r
daily <- group_by(flights, year, month, day)
(per_day   <- summarise(daily, flights = n()))
```

```
## Source: local data frame [365 x 4]
## Groups: year, month [?]
## 
##     year month   day flights
##    <int> <int> <int>   <int>
## 1   2013     1     1     842
## 2   2013     1     2     943
## 3   2013     1     3     914
## 4   2013     1     4     915
## 5   2013     1     5     720
## 6   2013     1     6     832
## 7   2013     1     7     933
## 8   2013     1     8     899
## 9   2013     1     9     902
## 10  2013     1    10     932
## # ... with 355 more rows
```
…
### 5.6.7 Exercises

**1. Brainstorm at least 5 different ways to assess the typical delay characteristics of a group of flights. Consider the following scenarios:**  

* A flight is 15 minutes early 50% of the time, and 15 minutes late 50% of the time.

```r
not_cancelled <- flights %>% 
  filter(!is.na(dep_delay), !is.na(arr_delay))
#First way
not_cancelled %>% group_by(year, month, day) %>% summarise(median = median(arr_delay==15 | arr_delay==-15))
```

```
## Source: local data frame [365 x 4]
## Groups: year, month [?]
## 
##     year month   day median
##    <int> <int> <int>  <dbl>
## 1   2013     1     1      0
## 2   2013     1     2      0
## 3   2013     1     3      0
## 4   2013     1     4      0
## 5   2013     1     5      0
## 6   2013     1     6      0
## 7   2013     1     7      0
## 8   2013     1     8      0
## 9   2013     1     9      0
## 10  2013     1    10      0
## # ... with 355 more rows
```

```r
#Second way
not_cancelled %>% group_by(year, month, day) %>% summarise(median = median(dep_delay==15 | dep_delay==-15))
```

```
## Source: local data frame [365 x 4]
## Groups: year, month [?]
## 
##     year month   day median
##    <int> <int> <int>  <dbl>
## 1   2013     1     1      0
## 2   2013     1     2      0
## 3   2013     1     3      0
## 4   2013     1     4      0
## 5   2013     1     5      0
## 6   2013     1     6      0
## 7   2013     1     7      0
## 8   2013     1     8      0
## 9   2013     1     9      0
## 10  2013     1    10      0
## # ... with 355 more rows
```
…
#Second way
#not_cancelled %>% group_by(year, month, day) %>% filter(dep_delay==10) %>% summarise(dep_delay)
```

* A flight is 30 minutes early 50% of the time, and 30 minutes late 50% of the time.  

```r
#First way
not_cancelled %>% group_by(year, month, day) %>% summarise(median = median(arr_delay==30 | arr_delay==-30))
```

```
## Source: local data frame [365 x 4]
## Groups: year, month [?]
## 
##     year month   day median
##    <int> <int> <int>  <dbl>
## 1   2013     1     1      0
## 2   2013     1     2      0
## 3   2013     1     3      0
## 4   2013     1     4      0
## 5   2013     1     5      0
## 6   2013     1     6      0
## 7   2013     1     7      0
## 8   2013     1     8      0
## 9   2013     1     9      0
## 10  2013     1    10      0
## # ... with 355 more rows
```

```r
#Second way
not_cancelled %>% group_by(year, month, day) %>% summarise(median = median(dep_delay==30 | dep_delay==-30))
```

```
## Source: local data frame [365 x 4]
## Groups: year, month [?]
## 
##     year month   day median
##    <int> <int> <int>  <dbl>
## 1   2013     1     1      0
## 2   2013     1     2      0
## 3   2013     1     3      0
## 4   2013     1     4      0
## 5   2013     1     5      0
## 6   2013     1     6      0
## 7   2013     1     7      0
## 8   2013     1     8      0
## 9   2013     1     9      0
## 10  2013     1    10      0
## # ... with 355 more rows
```
…
* 99% of the time a flight is on time. 1% of the time it's 2 hours late. 

```r
#First way
not_cancelled %>% group_by(year, month, day) %>% filter(arr_delay >= 120) %>% summarise(onepercent = quantile(arr_delay, 0.01))
```

```
## Source: local data frame [364 x 4]
## Groups: year, month [?]
## 
##     year month   day onepercent
##    <int> <int> <int>      <dbl>
## 1   2013     1     1     123.00
## 2   2013     1     2     120.46
## 3   2013     1     3     127.14
## 4   2013     1     4     125.09
## 5   2013     1     5     132.49
## 6   2013     1     6     122.36
## 7   2013     1     7     133.55
## 8   2013     1     8     126.24
## 9   2013     1     9     124.05
## 10  2013     1    10     120.85
## # ... with 354 more rows
```

```r
#Second way
not_cancelled %>% group_by(year, month, day) %>% filter(dep_delay >= 120) %>% summarise(onepercent = quantile(dep_delay, 0.01))
```

```
## Source: local data frame [364 x 4]
## Groups: year, month [?]
## 
##     year month   day onepercent
##    <int> <int> <int>      <dbl>
## 1   2013     1     1     121.16
## 2   2013     1     2     121.00
## 3   2013     1     3     123.45
## 4   2013     1     4     120.36
## 5   2013     1     5     127.04
## 6   2013     1     6     123.48
## 7   2013     1     7     140.72
## 8   2013     1     8     143.15
## 9   2013     1     9     148.24
## 10  2013     1    10     144.16
## # ... with 354 more rows
```


**Which is more important, arrival delay or departure delay?**  
_Personally I think arrival delay is more important because it is mor inconvenient than bein delayed departing._

**2. Come up with another approach that will give you the same outpt as `not_cancelled %>% count(tailnum, wt = distance)` without using `count()`.**  
_This "sums" the total miles the plane flew. There are other ways to do that. This throws:_ `Error in summarise_impl(.data, dots) : cannot modify grouping variable`. _I understand this error means I can't summarise by the same thing I grouped by, but not sure how else to go about this._

```r
not_cancelled %>% count(tailnum, wt = distance)
```

```
## # A tibble: 4,037 × 2
##    tailnum      n
##      <chr>  <dbl>
## 1   D942DN   3418
## 2   N0EGMQ 239143
## 3   N10156 109664
## 4   N102UW  25722
## 5   N103US  24619
## 6   N104UW  24616
## 7   N10575 139903
## 8   N105UW  23618
## 9   N107US  21677
## 10  N108UW  32070
## # ... with 4,027 more rows
```
…
**4. Look at the number of cancelled flights per day. Is there a pattern? Is the proportion of cancelled flights related to the average delay?**

_Trying to do anything with cancelled throws:_ `Error in summarise_impl(.data, dots) : no applicable method for 'group_by_' applied to an object of class "c('double', 'numeric')"` _which I have no idea what that means._

```r
cancelled <- flights %>% filter(is.na(dep_delay), is.na(arr_delay))

#cancelled %>% group_by(year, month, day) %>% summarise(nofly = count(air_time))

not_cancelled %>% group_by(year, month, day) %>% summarise(avg_delay = mean(arr_delay))
```

```
## Source: local data frame [365 x 4]
## Groups: year, month [?]
## 
##     year month   day  avg_delay
##    <int> <int> <int>      <dbl>
## 1   2013     1     1 12.6510229
## 2   2013     1     2 12.6928879
## 3   2013     1     3  5.7333333
## 4   2013     1     4 -1.9328194
## 5   2013     1     5 -1.5258020
## 6   2013     1     6  4.2364294
## 7   2013     1     7 -4.9473118
## 8   2013     1     8 -3.2275785
## 9   2013     1     9 -0.2642777
## 10  2013     1    10 -5.8988159
## # ... with 355 more rows
```
…
flights_sml %>% 
  group_by(year, month, day) %>%
  filter(rank(desc(arr_delay)) < 10)
```

```
## Source: local data frame [3,306 x 7]
## Groups: year, month, day [365]
## 
##     year month   day dep_delay arr_delay distance air_time
##    <int> <int> <int>     <dbl>     <dbl>    <dbl>    <dbl>
## 1   2013     1     1       853       851      184       41
## 2   2013     1     1       290       338     1134      213
## 3   2013     1     1       260       263      266       46
## 4   2013     1     1       157       174      213       60
## 5   2013     1     1       216       222      708      121
## 6   2013     1     1       255       250      589      115
## 7   2013     1     1       285       246     1085      146
## 8   2013     1     1       192       191      199       44
## 9   2013     1     1       379       456     1092      222
## 10  2013     1     2       224       207      550       94
## # ... with 3,296 more rows
```

```r
#Find all groups bigger than a threshold:
popular_dests <- flights %>% 
  group_by(dest) %>% 
  filter(n() > 365)
popular_dests
```

```
## Source: local data frame [332,577 x 19]
## Groups: dest [77]
## 
##     year month   day dep_time sched_dep_time dep_delay arr_time
##    <int> <int> <int>    <int>          <int>     <dbl>    <int>
## 1   2013     1     1      517            515         2      830
## 2   2013     1     1      533            529         4      850
## 3   2013     1     1      542            540         2      923
## 4   2013     1     1      544            545        -1     1004
## 5   2013     1     1      554            600        -6      812
## 6   2013     1     1      554            558        -4      740
## 7   2013     1     1      555            600        -5      913
## 8   2013     1     1      557            600        -3      709
## 9   2013     1     1      557            600        -3      838
## 10  2013     1     1      558            600        -2      753
## # ... with 332,567 more rows, and 12 more variables: sched_arr_time <int>,
## #   arr_delay <dbl>, carrier <chr>, flight <int>, tailnum <chr>,
## #   origin <chr>, dest <chr>, air_time <dbl>, distance <dbl>, hour <dbl>,
## #   minute <dbl>, time_hour <dttm>
```
…
